\relax 
\providecommand\hyper@newdestlabel[2]{}
\bibstyle{biblatex}
\bibdata{thesis-blx,general/sources}
\citation{biblatex-control}
\providecommand\HyperFirstAtBeginDocument{\AtBeginDocument}
\HyperFirstAtBeginDocument{\ifx\hyper@anchor\@undefined
\global\let\oldcontentsline\contentsline
\gdef\contentsline#1#2#3#4{\oldcontentsline{#1}{#2}{#3}}
\global\let\oldnewlabel\newlabel
\gdef\newlabel#1#2{\newlabelxx{#1}#2}
\gdef\newlabelxx#1#2#3#4#5#6{\oldnewlabel{#1}{{#2}{#3}}}
\AtEndDocument{\ifx\hyper@anchor\@undefined
\let\contentsline\oldcontentsline
\let\newlabel\oldnewlabel
\fi}
\fi}
\global\let\hyper@last\relax 
\gdef\HyperFirstAtBeginDocument#1{#1}
\providecommand*\HyPL@Entry[1]{}
\HyPL@Entry{0<</S/D>>}
\providecommand\@newglossary[4]{}
\@newglossary{main}{glg}{gls}{glo}
\@newglossary{acronym}{alg}{acr}{acn}
\providecommand\@glsorder[1]{}
\providecommand\@istfilename[1]{}
\@istfilename{thesis.xdy}
\@glsorder{word}
\@writefile{toc}{\boolfalse {citerequest}\boolfalse {citetracker}\boolfalse {pagetracker}\boolfalse {backtracker}\relax }
\@writefile{lof}{\boolfalse {citerequest}\boolfalse {citetracker}\boolfalse {pagetracker}\boolfalse {backtracker}\relax }
\@writefile{lot}{\boolfalse {citerequest}\boolfalse {citetracker}\boolfalse {pagetracker}\boolfalse {backtracker}\relax }
\select@language {french}
\@writefile{toc}{\defcounter {refsection}{0}\relax }\@writefile{toc}{\select@language {french}}
\@writefile{lof}{\defcounter {refsection}{0}\relax }\@writefile{lof}{\select@language {french}}
\@writefile{lot}{\defcounter {refsection}{0}\relax }\@writefile{lot}{\select@language {french}}
\select@language {french}
\@writefile{toc}{\defcounter {refsection}{0}\relax }\@writefile{toc}{\select@language {french}}
\@writefile{lof}{\defcounter {refsection}{0}\relax }\@writefile{lof}{\select@language {french}}
\@writefile{lot}{\defcounter {refsection}{0}\relax }\@writefile{lot}{\select@language {french}}
\HyPL@Entry{1<</S/r>>}
\@writefile{toc}{\defcounter {refsection}{0}\relax }\@writefile{toc}{\contentsline {chapter}{Preface}{i}{Doc-Start}}
\@writefile{toc}{\defcounter {refsection}{0}\relax }\@writefile{toc}{\contentsline {section}{Remerciements}{i}{section*.1}}
\HyPL@Entry{4<</S/D>>}
\@writefile{toc}{\defcounter {refsection}{0}\relax }\@writefile{toc}{\contentsline {chapter}{\numberline {1}Introduction}{1}{chapter.1}}
\@writefile{lof}{\defcounter {refsection}{0}\relax }\@writefile{lof}{\addvspace {10\p@ }}
\@writefile{lot}{\defcounter {refsection}{0}\relax }\@writefile{lot}{\addvspace {10\p@ }}
\@writefile{toc}{\defcounter {refsection}{0}\relax }\@writefile{toc}{\contentsline {chapter}{\numberline {2}Contexte}{2}{chapter.2}}
\@writefile{lof}{\defcounter {refsection}{0}\relax }\@writefile{lof}{\addvspace {10\p@ }}
\@writefile{lot}{\defcounter {refsection}{0}\relax }\@writefile{lot}{\addvspace {10\p@ }}
\@writefile{toc}{\defcounter {refsection}{0}\relax }\@writefile{toc}{\contentsline {section}{\numberline {2.1}Pictawall}{2}{section.2.1}}
\@writefile{toc}{\defcounter {refsection}{0}\relax }\@writefile{toc}{\contentsline {subsection}{\numberline {2.1.1}Les produits}{2}{subsection.2.1.1}}
\@writefile{toc}{\defcounter {refsection}{0}\relax }\@writefile{toc}{\contentsline {subsection}{\numberline {2.1.2}L'équipe}{2}{subsection.2.1.2}}
\@writefile{toc}{\defcounter {refsection}{0}\relax }\@writefile{toc}{\contentsline {section}{\numberline {2.2}Environnement technique}{3}{section.2.2}}
\@writefile{toc}{\defcounter {refsection}{0}\relax }\@writefile{toc}{\contentsline {subsection}{\numberline {2.2.1}Technologies}{3}{subsection.2.2.1}}
\@writefile{toc}{\defcounter {refsection}{0}\relax }\@writefile{toc}{\contentsline {subsection}{\numberline {2.2.2}Logiciels}{4}{subsection.2.2.2}}
\citation{ECMA:1}
\citation{HTML:1}
\@writefile{toc}{\defcounter {refsection}{0}\relax }\@writefile{toc}{\contentsline {chapter}{\numberline {3}Politique de développement}{5}{chapter.3}}
\@writefile{lof}{\defcounter {refsection}{0}\relax }\@writefile{lof}{\addvspace {10\p@ }}
\@writefile{lot}{\defcounter {refsection}{0}\relax }\@writefile{lot}{\addvspace {10\p@ }}
\newlabel{chapter:analysis}{{3}{5}{Politique de développement}{chapter.3}{}}
\abx@aux@fnpage{1}{5}
\citation{ECMA:2}
\@writefile{toc}{\defcounter {refsection}{0}\relax }\@writefile{toc}{\contentsline {section}{\numberline {3.1}Les transpilers}{6}{section.3.1}}
\abx@aux@fnpage{2}{6}
\abx@aux@fnpage{3}{6}
\@writefile{toc}{\defcounter {refsection}{0}\relax }\@writefile{toc}{\contentsline {section}{\numberline {3.2}Les source maps}{7}{section.3.2}}
\citation{sourcemaps:1}
\@writefile{toc}{\defcounter {refsection}{0}\relax }\@writefile{toc}{\contentsline {section}{\numberline {3.3}Les polyfills}{8}{section.3.3}}
\@writefile{toc}{\defcounter {refsection}{0}\relax }\@writefile{toc}{\contentsline {subsection}{\numberline {3.3.1}Les polyfills JavaScript}{8}{subsection.3.3.1}}
\abx@aux@fnpage{4}{8}
\@writefile{toc}{\defcounter {refsection}{0}\relax }\@writefile{toc}{\contentsline {subsubsection}{Isomorphisme}{9}{subsubsection*.3}}
\citation{houdini:1}
\citation{custom_elements:1}
\@writefile{toc}{\defcounter {refsection}{0}\relax }\@writefile{toc}{\contentsline {subsection}{\numberline {3.3.2}Le futur des polyfills}{10}{subsection.3.3.2}}
\abx@aux@fnpage{5}{10}
\abx@aux@fnpage{6}{10}
\citation{ResponseTimes:1}
\@writefile{toc}{\defcounter {refsection}{0}\relax }\@writefile{toc}{\contentsline {chapter}{\numberline {4}L'application}{11}{chapter.4}}
\@writefile{lof}{\defcounter {refsection}{0}\relax }\@writefile{lof}{\addvspace {10\p@ }}
\@writefile{lot}{\defcounter {refsection}{0}\relax }\@writefile{lot}{\addvspace {10\p@ }}
\@writefile{toc}{\defcounter {refsection}{0}\relax }\@writefile{toc}{\contentsline {section}{\numberline {4.1}L'application existante}{11}{section.4.1}}
\@writefile{toc}{\defcounter {refsection}{0}\relax }\@writefile{toc}{\contentsline {subsection}{\numberline {4.1.1}Le Social Hub}{11}{subsection.4.1.1}}
\abx@aux@fnpage{7}{11}
\@writefile{lof}{\defcounter {refsection}{0}\relax }\@writefile{lof}{\contentsline {figure}{\numberline {4.1}{\ignorespaces Le prototype du Social Hub}}{12}{figure.4.1}}
\newlabel{fig:old_sh}{{4.1}{12}{Le prototype du Social Hub}{figure.4.1}{}}
\@writefile{lof}{\defcounter {refsection}{0}\relax }\@writefile{lof}{\contentsline {figure}{\numberline {4.2}{\ignorespaces Exemple de script de configuration du prototype, il demande de charger plusieurs fichiers CSS, plusieurs fichiers JavaScript, un morceau d'HTML et du code complexe pour fonctionner. Ce code est de plus dépendant du \gls {sdk} de Pictawall, qui est susceptible de changer}}{13}{figure.4.2}}
\newlabel{fig:sem0_usage}{{4.2}{13}{Exemple de script de configuration du prototype, il demande de charger plusieurs fichiers CSS, plusieurs fichiers JavaScript, un morceau d'HTML et du code complexe pour fonctionner. Ce code est de plus dépendant du \gls {sdk} de Pictawall, qui est susceptible de changer}{figure.4.2}{}}
\@writefile{toc}{\defcounter {refsection}{0}\relax }\@writefile{toc}{\contentsline {subsection}{\numberline {4.1.2}La plateforme}{14}{subsection.4.1.2}}
\@writefile{lof}{\defcounter {refsection}{0}\relax }\@writefile{lof}{\contentsline {figure}{\numberline {4.3}{\ignorespaces Schéma UML simplifié des entités.\GenericError  {               }{LaTeX Error: There's no line here to end}{See the LaTeX manual or LaTeX Companion for explanation.}{Your command was ignored.\MessageBreak Type  I <command> <return>  to replace it with another command,\MessageBreak or  <return>  to continue without it.}\par \let \reserved@d = *\def \par }}{15}{figure.4.3}}
\newlabel{fig:entities}{{4.3}{15}{Schéma UML simplifié des entités.\\ L'entité Channel est une entité créée par la suite et sera expliquée dans le chapitre \ref {subsubsec:channel} - \nameref {subsubsec:channel}, page \pageref {subsubsec:channel}}{figure.4.3}{}}
\@writefile{toc}{\defcounter {refsection}{0}\relax }\@writefile{toc}{\contentsline {section}{\numberline {4.2}Objectifs du stage}{16}{section.4.2}}
\@writefile{toc}{\defcounter {refsection}{0}\relax }\@writefile{toc}{\contentsline {section}{\numberline {4.3}Déroulement du stage}{17}{section.4.3}}
\@writefile{toc}{\defcounter {refsection}{0}\relax }\@writefile{toc}{\contentsline {subsection}{\numberline {4.3.1}Semaine 1}{17}{subsection.4.3.1}}
\@writefile{toc}{\defcounter {refsection}{0}\relax }\@writefile{toc}{\contentsline {subsection}{\numberline {4.3.2}Semaine 2}{17}{subsection.4.3.2}}
\@writefile{toc}{\defcounter {refsection}{0}\relax }\@writefile{toc}{\contentsline {subsection}{\numberline {4.3.3}Semaine 3}{17}{subsection.4.3.3}}
\@writefile{toc}{\defcounter {refsection}{0}\relax }\@writefile{toc}{\contentsline {subsection}{\numberline {4.3.4}Semaine 4}{17}{subsection.4.3.4}}
\@writefile{toc}{\defcounter {refsection}{0}\relax }\@writefile{toc}{\contentsline {subsection}{\numberline {4.3.5}Semaine 5 et 6}{17}{subsection.4.3.5}}
\@writefile{toc}{\defcounter {refsection}{0}\relax }\@writefile{toc}{\contentsline {subsection}{\numberline {4.3.6}Semaine 7}{18}{subsection.4.3.6}}
\@writefile{toc}{\defcounter {refsection}{0}\relax }\@writefile{toc}{\contentsline {subsection}{\numberline {4.3.7}Semaine 8}{18}{subsection.4.3.7}}
\@writefile{toc}{\defcounter {refsection}{0}\relax }\@writefile{toc}{\contentsline {subsection}{\numberline {4.3.8}Semaine 9}{18}{subsection.4.3.8}}
\@writefile{toc}{\defcounter {refsection}{0}\relax }\@writefile{toc}{\contentsline {subsection}{\numberline {4.3.9}Semaine 10}{18}{subsection.4.3.9}}
\@writefile{toc}{\defcounter {refsection}{0}\relax }\@writefile{toc}{\contentsline {subsection}{\numberline {4.3.10}Semaine 11}{19}{subsection.4.3.10}}
\@writefile{toc}{\defcounter {refsection}{0}\relax }\@writefile{toc}{\contentsline {subsection}{\numberline {4.3.11}Semaine 12}{19}{subsection.4.3.11}}
\@writefile{toc}{\defcounter {refsection}{0}\relax }\@writefile{toc}{\contentsline {subsection}{\numberline {4.3.12}Semaine 13}{20}{subsection.4.3.12}}
\@writefile{toc}{\defcounter {refsection}{0}\relax }\@writefile{toc}{\contentsline {subsection}{\numberline {4.3.13}Semaine 14}{20}{subsection.4.3.13}}
\@writefile{toc}{\defcounter {refsection}{0}\relax }\@writefile{toc}{\contentsline {subsection}{\numberline {4.3.14}Semaine 15}{20}{subsection.4.3.14}}
\@writefile{toc}{\defcounter {refsection}{0}\relax }\@writefile{toc}{\contentsline {subsection}{\numberline {4.3.15}Semaine 16}{20}{subsection.4.3.15}}
\@writefile{toc}{\defcounter {refsection}{0}\relax }\@writefile{toc}{\contentsline {section}{\numberline {4.4}L'application finale}{21}{section.4.4}}
\@writefile{toc}{\defcounter {refsection}{0}\relax }\@writefile{toc}{\contentsline {subsection}{\numberline {4.4.1}Simplification d'intégration}{21}{subsection.4.4.1}}
\@writefile{toc}{\defcounter {refsection}{0}\relax }\@writefile{toc}{\contentsline {subsubsection}{Le script de boot}{21}{subsubsection*.4}}
\newlabel{subsec:the_cold_boot}{{4.4.1}{21}{Le script de boot}{subsubsection*.4}{}}
\@writefile{toc}{\defcounter {refsection}{0}\relax }\@writefile{toc}{\contentsline {subsubsection}{Les dépendances}{23}{subsubsection*.5}}
\citation{Module:1}
\citation{jquery_cohab:1}
\citation{Module:2}
\abx@aux@fnpage{8}{24}
\abx@aux@fnpage{9}{24}
\abx@aux@fnpage{10}{24}
\citation{scoped_chrome:1}
\citation{scoped_spec:1}
\@writefile{toc}{\defcounter {refsection}{0}\relax }\@writefile{toc}{\contentsline {subsection}{\numberline {4.4.2}Suppression de l'iframe}{26}{subsection.4.4.2}}
\@writefile{toc}{\defcounter {refsection}{0}\relax }\@writefile{toc}{\contentsline {subsubsection}{Les collisions en CSS}{26}{subsubsection*.6}}
\abx@aux@fnpage{11}{26}
\abx@aux@fnpage{12}{26}
\@writefile{toc}{\defcounter {refsection}{0}\relax }\@writefile{toc}{\contentsline {subsubsection}{Rendre le design Responsive}{27}{subsubsection*.7}}
\@writefile{lof}{\defcounter {refsection}{0}\relax }\@writefile{lof}{\contentsline {figure}{\numberline {4.4}{\ignorespaces Intégration sur le site \url  {undiscoveredlondon.com}}}{29}{figure.4.4}}
\newlabel{fig:ul}{{4.4}{29}{Intégration sur le site \url {undiscoveredlondon.com}}{figure.4.4}{}}
\@writefile{toc}{\defcounter {refsection}{0}\relax }\@writefile{toc}{\contentsline {subsection}{\numberline {4.4.3}Optimisation}{30}{subsection.4.4.3}}
\@writefile{lof}{\defcounter {refsection}{0}\relax }\@writefile{lof}{\contentsline {figure}{\numberline {4.5}{\ignorespaces Temps de chargement du prototype.}}{30}{figure.4.5}}
\newlabel{fig:loadtime_prototype}{{4.5}{30}{Temps de chargement du prototype}{figure.4.5}{}}
\@writefile{toc}{\defcounter {refsection}{0}\relax }\@writefile{toc}{\contentsline {subsubsection}{Suppression des dépendances}{30}{subsubsection*.8}}
\citation{browser_inconsistency:1}
\citation{HTML:1}
\abx@aux@fnpage{13}{31}
\citation{fetch:1}
\abx@aux@fnpage{14}{32}
\abx@aux@fnpage{15}{32}
\@writefile{toc}{\defcounter {refsection}{0}\relax }\@writefile{toc}{\contentsline {subsubsection}{Optimisation du code source}{33}{subsubsection*.9}}
\newlabel{subsec:optimising}{{4.4.3}{33}{Optimisation du code source}{subsubsection*.9}{}}
\@writefile{toc}{\defcounter {refsection}{0}\relax }\@writefile{toc}{\contentsline {subsubsection}{Réimplémentation du SDK}{35}{subsubsection*.10}}
\@writefile{toc}{\defcounter {refsection}{0}\relax }\@writefile{toc}{\contentsline {subsubsection}{Chargement des \glspl {asset}}{36}{subsubsection*.11}}
\citation{ResponsiveImages:1}
\abx@aux@fnpage{16}{37}
\@writefile{toc}{\defcounter {refsection}{0}\relax }\@writefile{toc}{\contentsline {subsubsection}{Résultat final}{38}{subsubsection*.12}}
\@writefile{lof}{\defcounter {refsection}{0}\relax }\@writefile{lof}{\contentsline {figure}{\numberline {4.6}{\ignorespaces Temps de chargement de l'application finale.}}{39}{figure.4.6}}
\newlabel{fig:loadtime_final}{{4.6}{39}{Temps de chargement de l'application finale}{figure.4.6}{}}
\@writefile{toc}{\defcounter {refsection}{0}\relax }\@writefile{toc}{\contentsline {subsection}{\numberline {4.4.4}Personnalisation}{40}{subsection.4.4.4}}
\@writefile{toc}{\defcounter {refsection}{0}\relax }\@writefile{toc}{\contentsline {subsubsection}{Configuration des fonctionnalités}{40}{subsubsection*.13}}
\newlabel{subsubsec:channel}{{4.4.4}{40}{Configuration des fonctionnalités}{subsubsection*.13}{}}
\@writefile{toc}{\defcounter {refsection}{0}\relax }\@writefile{toc}{\contentsline {subsubsection}{Configuration du style}{41}{subsubsection*.14}}
\@writefile{toc}{\defcounter {refsection}{0}\relax }\@writefile{toc}{\contentsline {subsubsection}{Ajout de fonctionnalités}{42}{subsubsection*.15}}
\@writefile{toc}{\defcounter {refsection}{0}\relax }\@writefile{toc}{\contentsline {subsection}{\numberline {4.4.5}Internationalization (i18n)}{45}{subsection.4.4.5}}
\@writefile{toc}{\defcounter {refsection}{0}\relax }\@writefile{toc}{\contentsline {subsection}{\numberline {4.4.6}Traçage}{46}{subsection.4.4.6}}
\@writefile{toc}{\defcounter {refsection}{0}\relax }\@writefile{toc}{\contentsline {subsubsection}{Envoi des données}{46}{subsubsection*.16}}
\@writefile{toc}{\defcounter {refsection}{0}\relax }\@writefile{toc}{\contentsline {subsubsection}{Collecte}{47}{subsubsection*.17}}
\@writefile{toc}{\defcounter {refsection}{0}\relax }\@writefile{toc}{\contentsline {subsubsection}{Identification des données}{47}{subsubsection*.18}}
\citation{tweetdeck_xss:1}
\@writefile{toc}{\defcounter {refsection}{0}\relax }\@writefile{toc}{\contentsline {subsection}{\numberline {4.4.7}Sécurité}{49}{subsection.4.4.7}}
\abx@aux@fnpage{17}{49}
\citation{color_theory:1}
\@writefile{toc}{\defcounter {refsection}{0}\relax }\@writefile{toc}{\contentsline {subsection}{\numberline {4.4.8}Stabilité}{50}{subsection.4.4.8}}
\@writefile{toc}{\defcounter {refsection}{0}\relax }\@writefile{toc}{\contentsline {subsubsection}{Consolider les données}{50}{subsubsection*.19}}
\@writefile{toc}{\defcounter {refsection}{0}\relax }\@writefile{toc}{\contentsline {subsubsection}{Consolider le code source}{50}{subsubsection*.20}}
\abx@aux@fnpage{18}{50}
\@writefile{toc}{\defcounter {refsection}{0}\relax }\@writefile{toc}{\contentsline {subsubsection}{Rattrapage des erreurs}{53}{subsubsection*.21}}
\@writefile{toc}{\defcounter {refsection}{0}\relax }\@writefile{toc}{\contentsline {chapter}{\numberline {5}Conclusion}{54}{chapter.5}}
\@writefile{lof}{\defcounter {refsection}{0}\relax }\@writefile{lof}{\addvspace {10\p@ }}
\@writefile{lot}{\defcounter {refsection}{0}\relax }\@writefile{lot}{\addvspace {10\p@ }}
\citation{gitflow:1}
\@writefile{lof}{\defcounter {refsection}{0}\relax }\@writefile{lof}{\contentsline {figure}{\numberline {5.1}{\ignorespaces La version finale du Social Hub}}{56}{figure.5.1}}
\newlabel{fig:new_sh}{{5.1}{56}{La version finale du Social Hub}{figure.5.1}{}}
\abx@aux@fnpage{19}{56}
\HyPL@Entry{60<</S/a>>}
\@writefile{toc}{\defcounter {refsection}{0}\relax }\@writefile{toc}{\contentsline {chapter}{Acronymes}{a}{section*.22}}
\@writefile{toc}{\defcounter {refsection}{0}\relax }\@writefile{toc}{\contentsline {chapter}{Glossaire}{b}{section*.24}}
\@writefile{toc}{\defcounter {refsection}{0}\relax }\@writefile{toc}{\contentsline {chapter}{Bibliographie}{e}{chapter*.25}}
\abx@aux@page{20}{5}
\abx@aux@page{21}{5}
\abx@aux@page{22}{5}
\abx@aux@page{23}{5}
\abx@aux@page{24}{5}
\abx@aux@page{25}{5}
\abx@aux@page{26}{5}
\abx@aux@page{27}{5}
\abx@aux@page{28}{5}
\abx@aux@page{29}{5}
\abx@aux@page{30}{5}
\abx@aux@page{31}{5}
\abx@aux@page{32}{6}
\abx@aux@page{33}{6}
\abx@aux@page{34}{6}
\abx@aux@page{35}{6}
\abx@aux@page{36}{6}
\abx@aux@page{37}{6}
\@writefile{toc}{\defcounter {refsection}{0}\relax }\@writefile{toc}{\contentsline {chapter}{Annexes}{g}{Annexe*.27}}
\providecommand\@xdylanguage[2]{}
\@xdylanguage{acronym}{french}
\providecommand\@gls@codepage[2]{}
\@gls@codepage{acronym}{utf8}
\providecommand\@xdylanguage[2]{}
\@xdylanguage{main}{french}
\providecommand\@gls@codepage[2]{}
\@gls@codepage{main}{utf8}
\ttl@finishall
